AFG;16900.36173
ALB;571475.6371
DZA;5743902.97
AGO;2683172.813
ARG;428559.9381
ARM;73059.31095
AUS;29682275.12
AUT;1356572.908
AZE;41575.61373
BGD;724240.6063
BLR;1787841.288
BEL;2307814.24
BLZ;2411124.442
BEN;1780538.681
BTN;34846.73825
BOL;85853.78273
BIH;610935.083
BWA;9675638.126
BRA;165711550.9
BRN;313660.6061
BGR;282207.9134
BFA;3515791.892
BDI;1851115.954
KHM;41296.42193
CMR;3645538.601
CAN;68188133.24
CAF;0
TCD;0
CHL;5775325.584
CHN;95534334.55
COL;7656381.367
COD;519551.3938
COG;130161.675
CRI;7319903.252
CIV;6362542.051
HRV;310039.1275
CUB;427226.699
CYP;123526.1938
CZE;933682.546
DNK;955841.9162
DJI;0
DOM;973706.54
ECU;2828703.814
EGY;1848946.128
SLV;1918822.194
GNQ;0
ERI;269943.9955
EST;152423.3294
ETH;6839126.312
FRO;0
FJI;153372.1494
FIN;1926613.962
FRA;8230967.081
PYF;814716.7403
GAB;3286043.529
GMB;3375553.652
GEO;168937.0372
DEU;11765911.78
GHA;4346265.363
GRC;989283.4578
GTM;2292857.526
GIN;1183971.114
GNB;0
GUY;286027.6376
HTI;0
HND;1069109.551
HUN;547021.9714
ISL;936403.3786
IND;28153557.45
IDN;5367985.393
IRN;96254.42637
IRQ;120387.4543
IRL;1510162.684
ISR;708089.0746
ITA;7965740.597
JPN;15303116.21
JOR;3779932.48
KAZ;7996.481749
KEN;14316852.38
KGZ;51169.20351
LAO;0
LVA;124002.651
LBN;1259666.38
LSO;0
LBR;0
LBY;12682600.21
LTU;373941.4629
LUX;265982.1309
MDG;1037882.633
MWI;9698329.185
MYS;4991553.389
MLI;7229466.038
MRT;0
MEX;20121558.77
MDA;76761.14853
MNG;61012.92425
MNE;73829.22211
MAR;17969219.22
MOZ;2416446.834
MMR;40618.93155
NAM;2169764.131
NPL;93120.38874
NLD;3485305.054
NCL;458324.3685
NZL;4753251.11
NIC;529804.1649
NER;159534.6674
NGA;2155406.605
PRK;0
NOR;1425762.708
PAK;343103.6857
PAL;0
PAN;693031.6526
PNG;228175.856
PRY;1003024.248
PER;1013349.045
PHL;384397.1648
POL;2992671.042
PRT;889631.1257
ROU;820699.9683
RUS;12370043.19
RWA;32808.88469
SEN;2518002.118
SRB;746228.5945
SLE;0
SVK;487568.7046
SVN;239214.869
SOM;0
ZAF;3844125.753
KOR;8115190.804
SSD;0
ESP;4700372.129
LKA;683708.2514
SDN;3090311.355
SUR;2119233.982
SWZ;0
SWE;2328511.164
CHE;3081134.74
SYR;152168.7352
TJK;158543.4631
TZA;2827398.309
THA;426577.5774
TGO;3351668.17
MKD;374280.3478
TUN;16892635.83
TUR;11681768.83
TKM;0
UGA;578741.2441
UKR;228693.8618
GBR;6936427.203
USA;375267160.3
URY;1351794.017
UZB;525070.6482
VEN;1750202.37
VNM;831417.1267
ZMB;15159513.63
ZWE;9675438.243
QAT;36084291.31
SAU;456686.4051
SGP;11673555.82
MLT;171373.151
